{
  "version": "2.1",
  "licenses": [
    {
      "id": "Apache-2.0",
      "name": "Apache License 2.0",
      "url": "https://opensource.org/licenses/Apache-2.0"
    },
    {
      "id": "BSD-3-Clause",
      "name": "BSD 3-Clause \"New\" or \"Revised\" License",
      "url": "https://opensource.org/licenses/BSD-3-Clause"
    },
    {
      "id": "MIT",
      "name": "MIT License",
      "url": "https://opensource.org/licenses/MIT"
    },
    {
      "id": "Python-2.0",
      "name": "Python License 2.0",
      "url": "https://opensource.org/licenses/Python-2.0"
    },
    {
      "id": "bsd",
      "name": "BSD",
      "url": "http://en.wikipedia.org/wiki/BSD_licenses"
    },
    {
      "id": "copyright (c) 2015, julien fache",
      "name": "Copyright (c) 2015, Julien Fache",
      "url": ""
    },
    {
      "id": "other/proprietary license",
      "name": "Other/Proprietary License",
      "url": ""
    }
  ],
  "dependencies": [
    {
      "name": "Django",
      "version": "1.11.4",
      "package_manager": "pip",
      "path": "requirements.txt",
      "licenses": [
        "bsd"
      ]
    },
    {
      "name": "Pillow",
      "version": "5.0.0",
      "package_manager": "pip",
      "path": "requirements.txt",
      "licenses": [
        "other/proprietary license"
      ]
    },
    {
      "name": "beautifulsoup4",
      "version": "4.6.0",
      "package_manager": "pip",
      "path": "requirements.txt",
      "licenses": [
        "MIT"
      ]
    },
    {
      "name": "django-contrib-comments",
      "version": "1.8.0",
      "package_manager": "pip",
      "path": "requirements.txt",
      "licenses": [
        "bsd"
      ]
    },
    {
      "name": "django-js-asset",
      "version": "1.0.0",
      "package_manager": "pip",
      "path": "requirements.txt",
      "licenses": [
        "bsd"
      ]
    },
    {
      "name": "django-mptt",
      "version": "0.9.0",
      "package_manager": "pip",
      "path": "requirements.txt",
      "licenses": [
        "MIT"
      ]
    },
    {
      "name": "django-tagging",
      "version": "0.4.6",
      "package_manager": "pip",
      "path": "requirements.txt",
      "licenses": [
        "bsd"
      ]
    },
    {
      "name": "django-xmlrpc",
      "version": "0.1.8",
      "package_manager": "pip",
      "path": "requirements.txt",
      "licenses": [
        "BSD-3-Clause"
      ]
    },
    {
      "name": "mots-vides",
      "version": "2015.5.11",
      "package_manager": "pip",
      "path": "requirements.txt",
      "licenses": [
        "copyright (c) 2015, julien fache"
      ]
    },
    {
      "name": "pyparsing",
      "version": "2.2.0",
      "package_manager": "pip",
      "path": "requirements.txt",
      "licenses": [
        "MIT"
      ]
    },
    {
      "name": "pytz",
      "version": "2018.3",
      "package_manager": "pip",
      "path": "requirements.txt",
      "licenses": [
        "MIT"
      ]
    },
    {
      "name": "regex",
      "version": "2018.2.8",
      "package_manager": "pip",
      "path": "requirements.txt",
      "licenses": [
        "Python-2.0"
      ]
    },
    {
      "name": "tornado",
      "version": "6.0.2",
      "package_manager": "pip",
      "path": "requirements.txt",
      "licenses": [
        "Apache-2.0"
      ]
    }
  ]
}