{
  "version": "1.1",
  "licenses": [
    {
      "count": 1,
      "name": "Apache 2.0"
    },
    {
      "count": 1,
      "name": "BSD"
    },
    {
      "count": 1,
      "name": "MIT"
    },
    {
      "count": 1,
      "name": "public domain, Python, 2-Clause BSD, GPL 3 (see COPYING.txt)"
    }
  ],
  "dependencies": [
    {
      "licenses": [
        {
          "name": "BSD",
          "url": "http://en.wikipedia.org/wiki/BSD_licenses#4-clause_license_.28original_.22BSD_License.22.29"
        }
      ],
      "license": {
        "name": "BSD",
        "url": "http://en.wikipedia.org/wiki/BSD_licenses#4-clause_license_.28original_.22BSD_License.22.29"
      },
      "dependency": {
        "name": "Django",
        "url": "https://www.djangoproject.com/",
        "description": "A high-level Python Web framework that encourages rapid development and clean, pragmatic design.",
        "pathes": [
          "."
        ]
      }
    },
    {
      "licenses": [
        {
          "name": "public domain, Python, 2-Clause BSD, GPL 3 (see COPYING.txt)",
          "url": ""
        }
      ],
      "license": {
        "name": "public domain, Python, 2-Clause BSD, GPL 3 (see COPYING.txt)"
      },
      "dependency": {
        "name": "docutils",
        "url": "http://docutils.sourceforge.net/",
        "description": "Docutils -- Python Documentation Utilities",
        "pathes": [
          "."
        ]
      }
    },
    {
      "licenses": [
        {
          "name": "MIT",
          "url": "http://opensource.org/licenses/mit-license"
        }
      ],
      "license": {
        "name": "MIT",
        "url": "http://opensource.org/licenses/mit-license"
      },
      "dependency": {
        "name": "pytz",
        "url": "http://pythonhosted.org/pytz",
        "description": "World timezone definitions, modern and historical",
        "pathes": [
          "."
        ]
      }
    },
    {
      "licenses": [
        {
          "name": "Apache 2.0",
          "url": "http://www.apache.org/licenses/LICENSE-2.0.txt"
        }
      ],
      "license": {
        "name": "Apache 2.0",
        "url": "http://www.apache.org/licenses/LICENSE-2.0.txt"
      },
      "dependency": {
        "name": "requests",
        "url": "http://python-requests.org",
        "description": "Python HTTP for Humans.",
        "pathes": [
          "."
        ]
      }
    }
  ]
}