{
  "licenses": [
    {
      "count": 28,
      "name": "MIT"
    },
    {
      "count": 1,
      "name": "BSD-3-Clause-Attribution"
    },
    {
      "count": 1,
      "name": "New BSD"
    },
    {
      "count": 1,
      "name": "Simplified BSD"
    }
  ],
  "dependencies": [
    {
      "license": {
        "name": "MIT",
        "url": "http://opensource.org/licenses/mit-license"
      },
      "dependency": {
        "name": "classpreloader/classpreloader",
        "description": "",
        "pathes": [
          "."
        ]
      }
    },
    {
      "license": {
        "name": "MIT",
        "url": "http://opensource.org/licenses/mit-license"
      },
      "dependency": {
        "name": "dnoegel/php-xdg-base-dir",
        "description": "",
        "pathes": [
          "."
        ]
      }
    },
    {
      "license": {
        "name": "MIT",
        "url": "http://opensource.org/licenses/mit-license"
      },
      "dependency": {
        "name": "doctrine/inflector",
        "description": "",
        "pathes": [
          "."
        ]
      }
    },
    {
      "license": {
        "name": "Simplified BSD",
        "url": "http://opensource.org/licenses/bsd-license"
      },
      "dependency": {
        "name": "jakub-onderka/php-console-color",
        "description": "",
        "pathes": [
          "."
        ]
      }
    },
    {
      "license": {
        "name": "MIT",
        "url": "http://opensource.org/licenses/mit-license"
      },
      "dependency": {
        "name": "jakub-onderka/php-console-highlighter",
        "description": "",
        "pathes": [
          "."
        ]
      }
    },
    {
      "license": {
        "name": "MIT",
        "url": "http://opensource.org/licenses/mit-license"
      },
      "dependency": {
        "name": "jeremeamia/SuperClosure",
        "description": "",
        "pathes": [
          "."
        ]
      }
    },
    {
      "license": {
        "name": "MIT",
        "url": "http://opensource.org/licenses/mit-license"
      },
      "dependency": {
        "name": "laravel/framework",
        "description": "",
        "pathes": [
          "."
        ]
      }
    },
    {
      "license": {
        "name": "MIT",
        "url": "http://opensource.org/licenses/mit-license"
      },
      "dependency": {
        "name": "league/flysystem",
        "description": "",
        "pathes": [
          "."
        ]
      }
    },
    {
      "license": {
        "name": "MIT",
        "url": "http://opensource.org/licenses/mit-license"
      },
      "dependency": {
        "name": "monolog/monolog",
        "description": "",
        "pathes": [
          "."
        ]
      }
    },
    {
      "license": {
        "name": "MIT",
        "url": "http://opensource.org/licenses/mit-license"
      },
      "dependency": {
        "name": "mtdowling/cron-expression",
        "description": "",
        "pathes": [
          "."
        ]
      }
    },
    {
      "license": {
        "name": "MIT",
        "url": "http://opensource.org/licenses/mit-license"
      },
      "dependency": {
        "name": "nesbot/carbon",
        "description": "",
        "pathes": [
          "."
        ]
      }
    },
    {
      "license": {
        "name": "New BSD",
        "url": "http://opensource.org/licenses/BSD-3-Clause"
      },
      "dependency": {
        "name": "nikic/php-parser",
        "description": "",
        "pathes": [
          "."
        ]
      }
    },
    {
      "license": {
        "name": "MIT",
        "url": "http://opensource.org/licenses/mit-license"
      },
      "dependency": {
        "name": "paragonie/random_compat",
        "description": "",
        "pathes": [
          "."
        ]
      }
    },
    {
      "license": {
        "name": "MIT",
        "url": "http://opensource.org/licenses/mit-license"
      },
      "dependency": {
        "name": "psr/log",
        "description": "",
        "pathes": [
          "."
        ]
      }
    },
    {
      "license": {
        "name": "MIT",
        "url": "http://opensource.org/licenses/mit-license"
      },
      "dependency": {
        "name": "psy/psysh",
        "description": "",
        "pathes": [
          "."
        ]
      }
    },
    {
      "license": {
        "name": "MIT",
        "url": "http://opensource.org/licenses/mit-license"
      },
      "dependency": {
        "name": "ramsey/uuid",
        "description": "",
        "pathes": [
          "."
        ]
      }
    },
    {
      "license": {
        "name": "MIT",
        "url": "http://opensource.org/licenses/mit-license"
      },
      "dependency": {
        "name": "swiftmailer/swiftmailer",
        "description": "",
        "pathes": [
          "."
        ]
      }
    },
    {
      "license": {
        "name": "MIT",
        "url": "http://opensource.org/licenses/mit-license"
      },
      "dependency": {
        "name": "symfony/console",
        "description": "",
        "pathes": [
          "."
        ]
      }
    },
    {
      "license": {
        "name": "MIT",
        "url": "http://opensource.org/licenses/mit-license"
      },
      "dependency": {
        "name": "symfony/debug",
        "description": "",
        "pathes": [
          "."
        ]
      }
    },
    {
      "license": {
        "name": "MIT",
        "url": "http://opensource.org/licenses/mit-license"
      },
      "dependency": {
        "name": "symfony/event-dispatcher",
        "description": "",
        "pathes": [
          "."
        ]
      }
    },
    {
      "license": {
        "name": "MIT",
        "url": "http://opensource.org/licenses/mit-license"
      },
      "dependency": {
        "name": "symfony/finder",
        "description": "",
        "pathes": [
          "."
        ]
      }
    },
    {
      "license": {
        "name": "MIT",
        "url": "http://opensource.org/licenses/mit-license"
      },
      "dependency": {
        "name": "symfony/http-foundation",
        "description": "",
        "pathes": [
          "."
        ]
      }
    },
    {
      "license": {
        "name": "MIT",
        "url": "http://opensource.org/licenses/mit-license"
      },
      "dependency": {
        "name": "symfony/http-kernel",
        "description": "",
        "pathes": [
          "."
        ]
      }
    },
    {
      "license": {
        "name": "MIT",
        "url": "http://opensource.org/licenses/mit-license"
      },
      "dependency": {
        "name": "symfony/polyfill-mbstring",
        "description": "",
        "pathes": [
          "."
        ]
      }
    },
    {
      "license": {
        "name": "MIT",
        "url": "http://opensource.org/licenses/mit-license"
      },
      "dependency": {
        "name": "symfony/polyfill-php56",
        "description": "",
        "pathes": [
          "."
        ]
      }
    },
    {
      "license": {
        "name": "MIT",
        "url": "http://opensource.org/licenses/mit-license"
      },
      "dependency": {
        "name": "symfony/polyfill-util",
        "description": "",
        "pathes": [
          "."
        ]
      }
    },
    {
      "license": {
        "name": "MIT",
        "url": "http://opensource.org/licenses/mit-license"
      },
      "dependency": {
        "name": "symfony/process",
        "description": "",
        "pathes": [
          "."
        ]
      }
    },
    {
      "license": {
        "name": "MIT",
        "url": "http://opensource.org/licenses/mit-license"
      },
      "dependency": {
        "name": "symfony/routing",
        "description": "",
        "pathes": [
          "."
        ]
      }
    },
    {
      "license": {
        "name": "MIT",
        "url": "http://opensource.org/licenses/mit-license"
      },
      "dependency": {
        "name": "symfony/translation",
        "description": "",
        "pathes": [
          "."
        ]
      }
    },
    {
      "license": {
        "name": "MIT",
        "url": "http://opensource.org/licenses/mit-license"
      },
      "dependency": {
        "name": "symfony/var-dumper",
        "description": "",
        "pathes": [
          "."
        ]
      }
    },
    {
      "license": {
        "name": "BSD-3-Clause-Attribution"
      },
      "dependency": {
        "name": "vlucas/phpdotenv",
        "description": "",
        "pathes": [
          "."
        ]
      }
    }
  ]
}